%YAML 1.1
%TAG !u! tag:unity3d.com,2011:
--- !u!1 &2282215932181947723
GameObject:
  m_ObjectHideFlags: 0
  m_CorrespondingSourceObject: {fileID: 0}
  m_PrefabInstance: {fileID: 0}
  m_PrefabAsset: {fileID: 0}
  serializedVersion: 6
  m_Component:
  - component: {fileID: 2282215932181947720}
  - component: {fileID: 2282215932181947721}
  - component: {fileID: 6039492033675131963}
  - component: {fileID: 6618243736864674581}
  - component: {fileID: 6618243736864674580}
  - component: {fileID: 7514642033499602165}
  m_Layer: 0
  m_Name: WallShape
  m_TagString: Untagged
  m_Icon: {fileID: 0}
  m_NavMeshLayer: 0
  m_StaticEditorFlags: 0
  m_IsActive: 1
--- !u!4 &2282215932181947720
Transform:
  m_ObjectHideFlags: 0
  m_CorrespondingSourceObject: {fileID: 0}
  m_PrefabInstance: {fileID: 0}
  m_PrefabAsset: {fileID: 0}
  m_GameObject: {fileID: 2282215932181947723}
  m_LocalRotation: {x: -0, y: -0, z: -0.6544518, w: 0.75610375}
  m_LocalPosition: {x: 3.25, y: 8.25, z: 0}
  m_LocalScale: {x: 1, y: 1, z: 1}
  m_Children: []
  m_Father: {fileID: 0}
  m_RootOrder: 0
  m_LocalEulerAnglesHint: {x: 0, y: 0, z: -81.756004}
--- !u!212 &2282215932181947721
SpriteRenderer:
  m_ObjectHideFlags: 0
  m_CorrespondingSourceObject: {fileID: 0}
  m_PrefabInstance: {fileID: 0}
  m_PrefabAsset: {fileID: 0}
  m_GameObject: {fileID: 2282215932181947723}
  m_Enabled: 1
  m_CastShadows: 0
  m_ReceiveShadows: 0
  m_DynamicOccludee: 1
  m_MotionVectors: 1
  m_LightProbeUsage: 1
  m_ReflectionProbeUsage: 1
  m_RenderingLayerMask: 1
  m_RendererPriority: 0
  m_Materials:
  - {fileID: 10754, guid: 0000000000000000f000000000000000, type: 0}
  m_StaticBatchInfo:
    firstSubMesh: 0
    subMeshCount: 0
  m_StaticBatchRoot: {fileID: 0}
  m_ProbeAnchor: {fileID: 0}
  m_LightProbeVolumeOverride: {fileID: 0}
  m_ScaleInLightmap: 1
  m_PreserveUVs: 0
  m_IgnoreNormalsForChartDetection: 0
  m_ImportantGI: 0
  m_StitchLightmapSeams: 0
  m_SelectedEditorRenderState: 0
  m_MinimumChartSize: 4
  m_AutoUVMaxDistance: 0.5
  m_AutoUVMaxAngle: 89
  m_LightmapParameters: {fileID: 0}
  m_SortingLayerID: -1763742561
  m_SortingLayer: 2
  m_SortingOrder: 0
  m_Sprite: {fileID: 21300000, guid: 073e2c23b9b88a349ae12b063557653e, type: 3}
  m_Color: {r: 1, g: 1, b: 1, a: 1}
  m_FlipX: 0
  m_FlipY: 0
  m_DrawMode: 0
  m_Size: {x: 2.98, y: 2.58}
  m_AdaptiveModeThreshold: 0.5
  m_SpriteTileMode: 0
  m_WasSpriteAssigned: 1
  m_MaskInteraction: 0
  m_SpriteSortPoint: 0
--- !u!50 &6039492033675131963
Rigidbody2D:
  serializedVersion: 4
  m_ObjectHideFlags: 0
  m_CorrespondingSourceObject: {fileID: 0}
  m_PrefabInstance: {fileID: 0}
  m_PrefabAsset: {fileID: 0}
  m_GameObject: {fileID: 2282215932181947723}
  m_BodyType: 2
  m_Simulated: 1
  m_UseFullKinematicContacts: 0
  m_UseAutoMass: 0
  m_Mass: 1
  m_LinearDrag: 0
  m_AngularDrag: 0.05
  m_GravityScale: 1
  m_Material: {fileID: 0}
  m_Interpolate: 0
  m_SleepingMode: 1
  m_CollisionDetection: 0
  m_Constraints: 0
--- !u!114 &6618243736864674581
MonoBehaviour:
  m_ObjectHideFlags: 0
  m_CorrespondingSourceObject: {fileID: 0}
  m_PrefabInstance: {fileID: 0}
  m_PrefabAsset: {fileID: 0}
  m_GameObject: {fileID: 2282215932181947723}
  m_Enabled: 1
  m_EditorHideFlags: 0
  m_Script: {fileID: 11500000, guid: 351ac9ea12c895849b0e3f2a241e22be, type: 3}
  m_Name: 
  m_EditorClassIdentifier: 
--- !u!114 &6618243736864674580
MonoBehaviour:
  m_ObjectHideFlags: 0
  m_CorrespondingSourceObject: {fileID: 0}
  m_PrefabInstance: {fileID: 0}
  m_PrefabAsset: {fileID: 0}
  m_GameObject: {fileID: 2282215932181947723}
  m_Enabled: 1
  m_EditorHideFlags: 0
  m_Script: {fileID: 11500000, guid: 95e48af0c8d92d947ba2a7216615ad1e, type: 3}
  m_Name: 
  m_EditorClassIdentifier: 
--- !u!60 &7514642033499602165
PolygonCollider2D:
  m_ObjectHideFlags: 0
  m_CorrespondingSourceObject: {fileID: 0}
  m_PrefabInstance: {fileID: 0}
  m_PrefabAsset: {fileID: 0}
  m_GameObject: {fileID: 2282215932181947723}
  m_Enabled: 1
  m_Density: 1
  m_Material: {fileID: 0}
  m_IsTrigger: 1
  m_UsedByEffector: 0
  m_UsedByComposite: 0
  m_Offset: {x: 0, y: 0}
  m_SpriteTilingProperty:
    border: {x: 0, y: 0, z: 0, w: 0}
    pivot: {x: 0.5, y: 0.5}
    oldSize: {x: 2.98, y: 2.58}
    newSize: {x: 2.98, y: 2.58}
    adaptiveTilingThreshold: 0.5
    drawMode: 0
    adaptiveTiling: 0
  m_AutoTiling: 0
  m_Points:
    m_Paths:
    - - {x: 1.4, y: -1.0799999}
      - {x: 1.11, y: -0.58}
      - {x: 0.81, y: -0.06}
      - {x: 0.37, y: 0.7}
      - {x: 0.22, y: 0.96}
      - {x: 0.04, y: 1.27}
      - {x: 0.01, y: 1.29}
      - {x: -0.03, y: 1.29}
      - {x: -0.17, y: 1.05}
      - {x: -0.25, y: 0.90999997}
      - {x: -0.32, y: 0.78999996}
      - {x: -0.47, y: 0.53}
      - {x: -0.55, y: 0.39}
      - {x: -0.64, y: 0.22}
      - {x: -0.69, y: 0.14999999}
      - {x: -0.81, y: -0.06}
      - {x: -0.88, y: -0.17999999}
      - {x: -1.18, y: -0.7}
      - {x: -1.26, y: -0.84}
      - {x: -1.3299999, y: -0.96}
      - {x: -1.48, y: -1.22}
      - {x: -1.49, y: -1.25}
      - {x: -1.49, y: -1.29}
      - {x: 1.49, y: -1.29}
      - {x: 1.49, y: -1.24}
      - {x: 1.4399999, y: -1.15}
