%YAML 1.1
%TAG !u! tag:unity3d.com,2011:
--- !u!1001 &3653185543501481001
PrefabInstance:
  m_ObjectHideFlags: 0
  serializedVersion: 2
  m_Modification:
    m_TransformParent: {fileID: 0}
    m_Modifications:
    - target: {fileID: 8182494611781128998, guid: e4c15b594cb142c4e854e46513f92b50,
        type: 3}
      propertyPath: m_Name
      value: Explode Particle System
      objectReference: {fileID: 0}
    - target: {fileID: 8182494611781128997, guid: e4c15b594cb142c4e854e46513f92b50,
        type: 3}
      propertyPath: m_RootOrder
      value: 0
      objectReference: {fileID: 0}
    - target: {fileID: 8182494611781128997, guid: e4c15b594cb142c4e854e46513f92b50,
        type: 3}
      propertyPath: m_LocalRotation.x
      value: -0
      objectReference: {fileID: 0}
    - target: {fileID: 8182494611781128997, guid: e4c15b594cb142c4e854e46513f92b50,
        type: 3}
      propertyPath: m_LocalRotation.y
      value: -0
      objectReference: {fileID: 0}
    - target: {fileID: 8182494611781128997, guid: e4c15b594cb142c4e854e46513f92b50,
        type: 3}
      propertyPath: m_LocalRotation.z
      value: -0
      objectReference: {fileID: 0}
    m_RemovedComponents: []
  m_SourcePrefab: {fileID: 100100000, guid: e4c15b594cb142c4e854e46513f92b50, type: 3}
