%YAML 1.1
%TAG !u! tag:unity3d.com,2011:
--- !u!78 &1
TagManager:
  serializedVersion: 2
  tags:
  - Star
  - RightReviewButton
  - LeftReviewButton
  - GameoverPanel
  - ScorePanel
  - ShopPanel
  - RatePanel
  - HighscoreText
  - GemsText
  - FinalScoreText
  - InGameScoreText
  - SkinsSubPanel
  - BackgroundsSubPanel
  - MicrosPanel
  - IsometricGrid
  - ShopItemIcon
  - ShopItemGemIcon
  - ShopItemInfo
  layers:
  - Default
  - TransparentFX
  - Ignore Raycast
  - 
  - Water
  - UI
  - 
  - 
  - Snake
  - Background
  - UI_Top
  - 
  - 
  - 
  - 
  - 
  - 
  - 
  - 
  - 
  - 
  - 
  - 
  - 
  - 
  - 
  - 
  - 
  - 
  - 
  - 
  - 
  m_SortingLayers:
  - name: Default
    uniqueID: 0
    locked: 0
  - name: Background
    uniqueID: 850617437
    locked: 0
  - name: Walls
    uniqueID: 2531224735
    locked: 0
  - name: Player
    uniqueID: 1891996579
    locked: 0
  - name: UI
    uniqueID: 2741864031
    locked: 0
